%YAML 1.1
%TAG !u! tag:unity3d.com,2011:
--- !u!114 &11400000
MonoBehaviour:
  m_ObjectHideFlags: 0
  m_CorrespondingSourceObject: {fileID: 0}
  m_PrefabInstance: {fileID: 0}
  m_PrefabAsset: {fileID: 0}
  m_GameObject: {fileID: 0}
  m_Enabled: 1
  m_EditorHideFlags: 0
  m_Script: {fileID: 11500000, guid: a69e601e972e2404490de9aa580ee59e, type: 3}
  m_Name: GermanDictionary
  m_EditorClassIdentifier: 
  itemName: Duden
  effect: {fileID: 11400000, guid: cd461504f06f94f40bed858ce03ffbb7, type: 2}
  description: More letters to express yourself
  sprite: {fileID: 21300000, guid: b474d9007711723458d33864ccb3fb30, type: 3}
