%YAML 1.1
%TAG !u! tag:unity3d.com,2011:
--- !u!114 &11400000
MonoBehaviour:
  m_ObjectHideFlags: 0
  m_CorrespondingSourceObject: {fileID: 0}
  m_PrefabInstance: {fileID: 0}
  m_PrefabAsset: {fileID: 0}
  m_GameObject: {fileID: 0}
  m_Enabled: 1
  m_EditorHideFlags: 0
  m_Script: {fileID: 11500000, guid: a69e601e972e2404490de9aa580ee59e, type: 3}
  m_Name: StopWatch
  m_EditorClassIdentifier: 
  itemName: Slow Motion Camera
  effect: {fileID: 11400000, guid: e964d9013de356a47a317a1a15f6a47e, type: 2}
  description: This camera doesn't work propraly.
  sprite: {fileID: 21300000, guid: 09926d2a74805264380f5a96be46c7ae, type: 3}
